R-Skript-FINAL.R
…
## The following objects are masked from 'package:base':
## 
##     intersect, setdiff, setequal, union

e_scores <- as_data_frame(e_for_scores$scores)

## Warning: `as_data_frame()` is deprecated, use `as_tibble()` (but mind the new semantics).
## This warning is displayed once per session.

e_scores

## # A tibble: 2,022 x 2
##    Factor1 Factor2
##      <dbl>   <dbl>
##  1 -0.138  -0.131 
##  2 -0.173   0.187 
##  3 -0.196  -0.0689
##  4 -0.264   0.0714
##  5  4.52    1.46  
##  6 -0.132  -0.184 
##  7 -0.190  -0.133 
##  8  0.0783 -0.200 
##  9  0.0542  0.0155
## 10 -0.0876 -0.112 
## #  with 2,012 more rows
…
