Kaggle-Challenge-Candy.R
…
dataset

## # A tibble: 85 x 13
##    competitorname chocolate fruity caramel peanutyalmondy nougat
##    <chr>              <dbl>  <dbl>   <dbl>          <dbl>  <dbl>
##  1 100 Grand              1      0       1              0      0
##  2 3 Musketeers           1      0       0              0      1
##  3 One dime               0      0       0              0      0
##  4 One quarter            0      0       0              0      0
##  5 Air Heads              0      1       0              0      0
##  6 Almond Joy             1      0       0              1      0
##  7 Baby Ruth              1      0       1              1      1
##  8 Boston Baked          0      0       0              1      0
##  9 Candy Corn             0      0       0              0      0
## 10 Caramel Apple         0      1       1              0      0
## #  with 75 more rows, and 7 more variables: crispedricewafer <dbl>,
## #   hard <dbl>, bar <dbl>, pluribus <dbl>, sugarpercent <dbl>,
## #   pricepercent <dbl>, winpercent <dbl>
…
##  [1] 4 3 0 0 1 3 5 2 1 2 3 2 2 2 2 2 2 3 2 1 2 2 2 3 2 2 3 2 3 1 2 1 3 2 2 3 4 4
## [39] 3 2 3 3 3 3 2 2 3 3 1 3 2 2 2 3 2 2 3 2 3 2 2 2 2 3 5 5 2 2 2 3 2 1 1 2 3 1
## [77] 2 2 2 4 1 2 2 2 3

min(datasum)

## [1] 0

# With this overview we can see that there are two candies "One dime" and "One quarter" that have absolutly no ingredients.
# It looks like these are the no candies. They could on the other hand be money. 
# Therefore these should be removed. 
data <- dataset[-c(3,4),]
data

## # A tibble: 83 x 13
##    competitorname chocolate fruity caramel peanutyalmondy nougat
##    <chr>              <dbl>  <dbl>   <dbl>          <dbl>  <dbl>
##  1 100 Grand              1      0       1              0      0
##  2 3 Musketeers           1      0       0              0      1
##  3 Air Heads              0      1       0              0      0
##  4 Almond Joy             1      0       0              1      0
##  5 Baby Ruth              1      0       1              1      1
##  6 Boston Baked          0      0       0              1      0
##  7 Candy Corn             0      0       0              0      0
##  8 Caramel Apple         0      1       1              0      0
##  9 Charleston Ch         1      0       0              0      1
## 10 Chewey Lemonh         0      1       0              0      0
## #  with 73 more rows, and 7 more variables: crispedricewafer <dbl>,
## #   hard <dbl>, bar <dbl>, pluribus <dbl>, sugarpercent <dbl>,
## #   pricepercent <dbl>, winpercent <dbl>
…
